88 -48 840
-8 -40 32 -64 816
-48 -48 -8 24 -64 -56 696
-16 -56 40 -32 816
-48 936
24 -16 -24 -48 848
-56 -56 -72 784
8 -8 960
-40 -8 -32 888
72 -8 896
-64 -40 -32 832
-40 -56 -16 -56 -64 -64 -64 576
24 -32 48 -56 -40 16 -64 -72 576
40 -56 -16 48 -48 744
-40 -32 -72 -72 -32 -40 48 -56 -24 -56 440
